<svg width="45" height="45" viewBox="0 0 45 45" fill="none" xmlns="http://www.w3.org/2000/svg">
<path d="M41.8594 24.6694L19.9765 24.0274L-7.85179e-06 21.6679L19.9697 19.3091L41.8516 19.2796L41.8594 24.6694Z" fill="#0057FF"/>
</svg>
